Construct Single-Hierarchical P/NBD Model for Online Retail Transaction Data
…
All 4 chains finished successfully.
Mean chain execution time: 201.9 seconds.
Total execution time: 235.6 seconds.

Show code

pnbd_onlineretail_twohiermean_stanfit$summary()

# A tibble: 12,722 × 10
   variable       mean   median      sd     mad       q5      q95  rhat ess_bulk
   <chr>         <num>    <num>   <num>   <num>    <num>    <num> <num>    <num>
 1 lp__       -5.03e+4 -5.03e+4 7.46e+1 7.46e+1 -5.04e+4 -5.01e+4 1.01     705. 
 2 lambda_mn   1.01e-1  1.01e-1 1.97e-3 1.97e-3  9.78e-2  1.04e-1 1.00    1378. 
 3 mu_mn       8.97e-4  8.70e-4 2.35e-4 1.95e-4  5.54e-4  1.35e-3 1.24      12.3
 4 lambda[1]   4.17e-2  3.42e-2 3.13e-2 2.66e-2  6.67e-3  1.03e-1 1.00    2995. 
 5 lambda[2]   7.00e-2  4.93e-2 6.86e-2 4.87e-2  4.47e-3  2.02e-1 1.00    2226. 
 6 lambda[3]   5.24e-2  3.65e-2 5.09e-2 3.57e-2  3.17e-3  1.50e-1 1.00    2005. 
 7 lambda[4]   4.96e-2  4.11e-2 3.59e-2 3.06e-2  8.13e-3  1.20e-1 1.00    1899. 
 8 lambda[5]   9.57e-2  7.00e-2 9.15e-2 6.81e-2  5.68e-3  2.66e-1 0.999   1790. 
 9 lambda[6]   1.61e-1  1.39e-1 1.13e-1 9.26e-2  2.88e-2  3.84e-1 0.999   2623. 
10 lambda[7]   6.54e-2  4.33e-2 6.86e-2 4.39e-2  2.69e-3  2.04e-1 1.00    2055. 
# ℹ 12,712 more rows
# ℹ 1 more variable: ess_tail <num>
…
