Construct Non-Hierarchical P/NBD Model for Long Timeframe Synthetic Data
…
All 4 chains finished successfully.
Mean chain execution time: 12.6 seconds.
Total execution time: 13.3 seconds.

Show code

pnbd_long_fixed1_stanfit$summary()

# A tibble: 3,001 × 10
   variable        mean   median      sd     mad       q5      q95  rhat ess_b…¹
   <chr>          <num>    <num>   <num>   <num>    <num>    <num> <num>   <num>
 1 lp__        -2.19e+4 -2.19e+4 34.5    34.7    -2.20e+4 -2.19e+4 1.00     586.
 2 lambda[1]    2.11e-1  1.67e-1  0.168   0.133   3.08e-2  5.32e-1 1.00    4631.
 3 lambda[2]    1.39e-1  8.15e-2  0.164   0.0916  5.06e-3  4.78e-1 1.00    3153.
 4 lambda[3]    5.97e-2  4.77e-2  0.0470  0.0378  8.66e-3  1.51e-1 1.00    4279.
 5 lambda[4]    1.40e-1  8.13e-2  0.171   0.0955  4.27e-3  4.81e-1 1.00    3333.
 6 lambda[5]    4.86e-1  4.69e-1  0.163   0.151   2.54e-1  7.77e-1 1.00    3856.
 7 lambda[6]    3.07e-1  2.37e-1  0.253   0.196   4.11e-2  7.89e-1 0.999   3804.
 8 lambda[7]    1.46e-1  8.55e-2  0.167   0.0960  5.77e-3  4.77e-1 1.00    3199.
 9 lambda[8]    1.42e-1  8.53e-2  0.168   0.0953  4.87e-3  4.82e-1 1.00    2869.
10 lambda[9]    1.41e-1  8.44e-2  0.166   0.0969  4.16e-3  5.04e-1 0.999   2816.
# … with 2,991 more rows, 1 more variable: ess_tail <num>, and abbreviated
#   variable name ¹​ess_bulk
…
