Constructing Non-Hierarchical P/NBD Models
…
All 4 chains finished successfully.
Mean chain execution time: 329.3 seconds.
Total execution time: 368.1 seconds.

Show code

pnbd_fixed_stanfit$summary()

# A tibble: 30,001 × 10
   variable        mean   median      sd     mad       q5      q95  rhat ess_b…¹
   <chr>          <num>    <num>   <num>   <num>    <num>    <num> <num>   <num>
 1 lp__        -1.60e+5 -1.60e+5 1.07e+2 1.05e+2 -1.60e+5 -1.60e+5 1.00     693.
 2 lambda[1]    1.42e-1  8.13e-2 1.76e-1 9.56e-2  2.96e-3  4.97e-1 1.00    1519.
 3 lambda[2]    1.42e-1  8.90e-2 1.64e-1 9.77e-2  4.77e-3  4.55e-1 0.999   2081.
 4 lambda[3]    1.37e-1  8.06e-2 1.62e-1 9.00e-2  4.46e-3  4.72e-1 1.00    1693.
 5 lambda[4]    1.42e-1  8.30e-2 1.72e-1 9.48e-2  4.07e-3  4.72e-1 0.999   2083.
 6 lambda[5]    4.56e-1  4.51e-1 8.27e-2 8.18e-2  3.27e-1  5.98e-1 1.00    2979.
 7 lambda[6]    1.07e-1  9.40e-2 6.75e-2 5.79e-2  2.63e-2  2.36e-1 1.01    2657.
 8 lambda[7]    1.36e-1  7.99e-2 1.64e-1 9.14e-2  4.52e-3  4.39e-1 1.00    1874.
 9 lambda[8]    3.50e-1  2.66e-1 2.99e-1 2.14e-1  4.43e-2  9.15e-1 1.00    2235.
10 lambda[9]    1.42e-1  8.11e-2 1.66e-1 9.24e-2  4.62e-3  4.82e-1 1.00    2036.
# … with 29,991 more rows, 1 more variable: ess_tail <num>, and abbreviated
#   variable name ¹​ess_bulk
…
