Construct Two Parameter Hierarchical P/NBD Model for CD-Now Transaction Data
…
  pnbd_cdnow_twohiermean_stanfit$save_object(stanfit_object_file, compress = "gzip")

} else {
  pnbd_cdnow_twohiermean_stanfit <- read_rds(stanfit_object_file)
}

pnbd_cdnow_twohiermean_stanfit$summary()

# A tibble: 70,715 × 10
   variable       mean   median      sd     mad       q5      q95  rhat ess_bulk
   <chr>         <num>    <num>   <num>   <num>    <num>    <num> <num>    <num>
 1 lp__       -1.93e+5 -1.93e+5 1.74e+2 1.78e+2 -1.94e+5 -1.93e+5  1.01     416.
 2 lambda_mn   5.57e-2  5.57e-2 6.27e-4 6.04e-4  5.47e-2  5.68e-2  1.00     552.
 3 mu_mn       4.60e-2  4.60e-2 1.05e-3 1.06e-3  4.43e-2  4.78e-2  1.00     314.
 4 lambda[1]   6.00e-2  4.73e-2 4.79e-2 3.78e-2  8.97e-3  1.55e-1  1.00    2713.
 5 lambda[2]   1.60e-1  1.56e-1 4.90e-2 4.96e-2  8.86e-2  2.47e-1  1.00    3810.
 6 lambda[3]   5.79e-2  5.32e-2 2.87e-2 2.60e-2  1.99e-2  1.11e-1  1.00    3466.
 7 lambda[4]   2.88e-2  2.43e-2 2.04e-2 1.74e-2  5.25e-3  6.94e-2  1.00    2864.
 8 lambda[5]   3.81e-2  3.04e-2 2.89e-2 2.33e-2  6.65e-3  9.30e-2  1.00    3337.
 9 lambda[6]   8.46e-2  7.11e-2 5.63e-2 4.62e-2  1.90e-2  1.95e-1  1.00    4131.
10 lambda[7]   4.39e-2  3.93e-2 2.53e-2 2.39e-2  1.20e-2  8.91e-2  1.00    3789.
# ℹ 70,705 more rows
# ℹ 1 more variable: ess_tail <num>
…
  pnbd_cdnow_twohierlambda_stanfit$save_object(stanfit_object_file, compress = "gzip")

} else {
  pnbd_cdnow_twohierlambda_stanfit <- read_rds(stanfit_object_file)
}

pnbd_cdnow_twohierlambda_stanfit$summary()

# A tibble: 70,715 × 10
   variable       mean   median      sd     mad       q5      q95  rhat ess_bulk
   <chr>         <num>    <num>   <num>   <num>    <num>    <num> <num>    <num>
 1 lp__       -2.48e+5 -2.48e+5 3.25e+2 3.22e+2 -2.48e+5 -2.47e+5  1.03     141.
 2 lambda_mn   6.59e-2  6.59e-2 6.91e-4 6.91e-4  6.48e-2  6.71e-2  1.00     905.
 3 lambda_cv   1.00e+0  1.00e+0 1.15e-2 1.09e-2  9.81e-1  1.02e+0  1.04     139.
 4 lambda[1]   6.95e-2  5.40e-2 5.35e-2 4.33e-2  1.14e-2  1.72e-1  1.00    2381.
 5 lambda[2]   1.68e-1  1.63e-1 5.06e-2 4.80e-2  9.45e-2  2.55e-1  1.00    2685.
 6 lambda[3]   6.21e-2  5.72e-2 3.12e-2 2.85e-2  2.00e-2  1.19e-1  1.01    3211.
 7 lambda[4]   2.96e-2  2.45e-2 2.12e-2 1.78e-2  5.06e-3  6.96e-2  1.00    2757.
 8 lambda[5]   4.32e-2  3.43e-2 3.62e-2 2.73e-2  6.37e-3  1.12e-1  1.01    2520.
 9 lambda[6]   9.53e-2  8.31e-2 6.05e-2 5.31e-2  2.23e-2  2.14e-1  1.00    2703.
10 lambda[7]   4.65e-2  4.14e-2 2.68e-2 2.51e-2  1.33e-2  9.49e-2  1.00    2920.
# ℹ 70,705 more rows
# ℹ 1 more variable: ess_tail <num>
…
