Construct Two Parameter Hierarchical P/NBD Model for Short Timeframe Synthetic Data
…
  pnbd_short_twohiermean_stanfit$save_object(stanfit_object_file, compress = "gzip")

} else {
  pnbd_short_twohiermean_stanfit <- read_rds(stanfit_object_file)
}

pnbd_short_twohiermean_stanfit$summary()

# A tibble: 9,965 × 10
   variable       mean   median      sd     mad       q5      q95  rhat ess_bulk
   <chr>         <num>    <num>   <num>   <num>    <num>    <num> <num>    <num>
 1 lp__       -3.92e+4 -3.92e+4 6.43e+1 6.67e+1 -3.93e+4 -3.91e+4  1.00     617.
 2 lambda_mn   2.53e-1  2.53e-1 6.12e-3 6.16e-3  2.42e-1  2.63e-1  1.00     971.
 3 mu_mn       1.13e-1  1.13e-1 4.55e-3 4.57e-3  1.05e-1  1.20e-1  1.01     385.
 4 lambda[1]   4.47e-1  4.33e-1 1.51e-1 1.44e-1  2.33e-1  7.17e-1  1.00    3038.
 5 lambda[2]   2.12e-1  1.84e-1 1.39e-1 1.19e-1  4.67e-2  4.75e-1  1.00    2183.
 6 lambda[3]   2.62e-1  2.08e-1 2.05e-1 1.68e-1  3.52e-2  6.67e-1  1.00    1378.
 7 lambda[4]   1.45e-1  8.28e-2 1.72e-1 9.54e-2  5.00e-3  4.90e-1  1.00    1928.
 8 lambda[5]   4.92e-1  4.56e-1 2.58e-1 2.48e-1  1.50e-1  9.98e-1  1.00    1978.
 9 lambda[6]   2.46e-1  1.90e-1 1.95e-1 1.55e-1  3.66e-2  6.49e-1  1.00    2047.
10 lambda[7]   1.41e-1  8.52e-2 1.63e-1 9.66e-2  5.15e-3  4.71e-1  1.00    1823.
# ℹ 9,955 more rows
# ℹ 1 more variable: ess_tail <num>
…
  pnbd_short_twohierlambda_stanfit$save_object(stanfit_object_file, compress = "gzip")

} else {
  pnbd_short_twohierlambda_stanfit <- read_rds(stanfit_object_file)
}

pnbd_short_twohierlambda_stanfit$summary()

# A tibble: 9,965 × 10
   variable       mean   median      sd     mad       q5      q95  rhat ess_bulk
   <chr>         <num>    <num>   <num>   <num>    <num>    <num> <num>    <num>
 1 lp__       -4.71e+4 -4.71e+4 9.35e+1 9.33e+1 -4.72e+4 -4.69e+4  1.02     150.
 2 lambda_mn   2.47e-1  2.47e-1 6.05e-3 5.71e-3  2.37e-1  2.58e-1  1.00    1494.
 3 lambda_cv   1.06e+0  1.06e+0 2.55e-2 2.39e-2  1.02e+0  1.11e+0  1.02     158.
 4 lambda[1]   4.49e-1  4.32e-1 1.53e-1 1.54e-1  2.36e-1  7.24e-1  1.01    2613.
 5 lambda[2]   2.04e-1  1.83e-1 1.28e-1 1.13e-1  4.34e-2  4.59e-1  1.00    1979.
 6 lambda[3]   2.56e-1  1.98e-1 2.22e-1 1.60e-1  3.70e-2  6.64e-1  1.00    2088.
 7 lambda[4]   1.32e-1  7.53e-2 1.60e-1 8.76e-2  3.26e-3  4.52e-1  1.01    1616.
 8 lambda[5]   5.01e-1  4.45e-1 2.83e-1 2.49e-1  1.52e-1  1.05e+0  1.00    2436.
 9 lambda[6]   2.32e-1  1.82e-1 1.93e-1 1.54e-1  2.87e-2  6.06e-1  1.00    2116.
10 lambda[7]   1.31e-1  6.66e-2 1.71e-1 8.16e-2  2.63e-3  4.74e-1  1.00    1431.
# ℹ 9,955 more rows
# ℹ 1 more variable: ess_tail <num>
…
