Construct Two Parameter Hierarchical P/NBD Model for Long Timeframe Synthetic Data
…
  pnbd_long_twohiermean_stanfit$save_object(stanfit_object_file, compress = "gzip")

} else {
  pnbd_long_twohiermean_stanfit <- read_rds(stanfit_object_file)
}

pnbd_long_twohiermean_stanfit$summary()

# A tibble: 3,005 × 10
   variable       mean   median      sd     mad       q5      q95  rhat ess_bulk
   <chr>         <num>    <num>   <num>   <num>    <num>    <num> <num>    <num>
 1 lp__       -2.14e+4 -2.14e+4 3.41e+1 3.45e+1 -2.15e+4 -2.14e+4  1.00     610.
 2 lambda_mn   2.45e-1  2.45e-1 1.04e-2 1.03e-2  2.28e-1  2.63e-1  1.00    2136.
 3 mu_mn       1.05e-1  1.05e-1 6.98e-3 6.92e-3  9.42e-2  1.17e-1  1.00    1105.
 4 lambda[1]   1.42e-1  8.64e-2 1.66e-1 9.74e-2  4.48e-3  4.84e-1  1.00    2798.
 5 lambda[2]   2.92e-1  2.64e-1 1.45e-1 1.33e-1  1.04e-1  5.71e-1  1.00    4184.
 6 lambda[3]   1.13e-1  9.10e-2 9.31e-2 7.18e-2  1.47e-2  2.98e-1  1.00    3017.
 7 lambda[4]   1.39e-1  7.94e-2 1.71e-1 8.97e-2  4.44e-3  4.57e-1  1.00    2827.
 8 lambda[5]   5.17e-1  4.88e-1 2.22e-1 2.09e-1  2.06e-1  9.21e-1  1.00    6524.
 9 lambda[6]   2.99e-1  2.63e-1 1.93e-1 1.72e-1  7.19e-2  6.52e-1  1.00    4228.
10 lambda[7]   2.50e-1  1.96e-1 1.94e-1 1.56e-1  4.10e-2  6.20e-1  1.00    4199.
# ℹ 2,995 more rows
# ℹ 1 more variable: ess_tail <num>
…
