Construct Non-Hierarchical P/NBD Model for Online Retail Transaction Data
…
All 4 chains finished successfully.
Mean chain execution time: 89.7 seconds.
Total execution time: 91.3 seconds.

Show code

pnbd_onlineretail_fixed1_stanfit$summary()

# A tibble: 13,009 × 10
   variable       mean   median      sd     mad       q5      q95  rhat ess_bulk
   <chr>         <num>    <num>   <num>   <num>    <num>    <num> <num>    <num>
 1 lp__       -7.51e+4 -7.51e+4 74.4    75.5    -7.52e+4 -7.50e+4  1.00     721.
 2 lambda[1]   2.92e-1  2.85e-1  0.0803  0.0768  1.78e-1  4.37e-1  1.00    1907.
 3 lambda[2]   1.44e-1  9.36e-2  0.153   0.0987  8.00e-3  4.47e-1  1.00    2059.
 4 lambda[3]   1.28e-1  7.64e-2  0.154   0.0814  4.76e-3  4.13e-1  1.00    1479.
 5 lambda[4]   7.19e-2  6.65e-2  0.0361  0.0337  2.44e-2  1.39e-1  1.00    1795.
 6 lambda[5]   2.45e-1  1.79e-1  0.230   0.180   1.44e-2  6.87e-1  1.00    1485.
 7 lambda[6]   2.98e-1  2.45e-1  0.216   0.178   5.40e-2  7.19e-1  1.00    1754.
 8 lambda[7]   1.47e-1  9.90e-2  0.157   0.101   7.20e-3  4.44e-1  1.00    1567.
 9 lambda[8]   1.38e-1  8.11e-2  0.156   0.0925  7.14e-3  4.53e-1  1.00    1940.
10 lambda[9]   2.70e-1  2.41e-1  0.154   0.138   7.71e-2  5.67e-1  1.00    1668.
# ℹ 12,999 more rows
# ℹ 1 more variable: ess_tail <num>
…
